<?xml version="1.0" encoding="UTF-8" standalone="no"?>
<svg
   xmlns:dc="http://purl.org/dc/elements/1.1/"
   xmlns:cc="http://creativecommons.org/ns#"
   xmlns:rdf="http://www.w3.org/1999/02/22-rdf-syntax-ns#"
   xmlns:svg="http://www.w3.org/2000/svg"
   xmlns="http://www.w3.org/2000/svg"
   xmlns:sodipodi="http://sodipodi.sourceforge.net/DTD/sodipodi-0.dtd"
   xmlns:inkscape="http://www.inkscape.org/namespaces/inkscape"
   width="40"
   height="40"
   viewBox="0 0 40 40"
   id="svg2"
   version="1.1"
   inkscape:version="0.48.5 r10040"
   sodipodi:docname="metaslider-md-nav-left.svg">
  <metadata
     id="metadata10">
    <rdf:RDF>
      <cc:Work
         rdf:about="">
        <dc:format>image/svg+xml</dc:format>
        <dc:type
           rdf:resource="http://purl.org/dc/dcmitype/StillImage" />
        <dc:title></dc:title>
      </cc:Work>
    </rdf:RDF>
  </metadata>
  <defs
     id="defs8" />
  <sodipodi:namedview
     pagecolor="#ffffff"
     bordercolor="#666666"
     borderopacity="1"
     objecttolerance="10"
     gridtolerance="10"
     guidetolerance="10"
     inkscape:pageopacity="0"
     inkscape:pageshadow="2"
     inkscape:window-width="1366"
     inkscape:window-height="745"
     id="namedview6"
     showgrid="false"
     inkscape:zoom="3.375"
     inkscape:cx="15.386901"
     inkscape:cy="11.597405"
     inkscape:window-x="-8"
     inkscape:window-y="-8"
     inkscape:window-maximized="1"
     inkscape:current-layer="g3259" />
  <g
     id="g3255">
    <g
       id="g3259">
      <rect
         style="color:#000000;fill:none;stroke:none;stroke-width:48.00001144;marker:none;visibility:visible;display:inline;overflow:visible;enable-background:accumulate"
         id="rect3253"
         width="40"
         height="40"
         x="0"
         y="0" />
      <path
         d="m 16.035029,11.219421 c -0.295562,-0.292561 -0.774162,-0.292561 -1.070473,0 -0.294812,0.292561 -0.294812,0.772661 0,1.065222 l 8.464013,7.711606 -8.464013,7.719108 c -0.294812,0.292561 -0.294812,0.76516 0,1.065222 0.296311,0.292561 0.774911,0.292561 1.070473,0 l 9.007126,-8.206709 c 0.157533,-0.157533 0.225047,-0.367577 0.213044,-0.577621 0.0105,-0.202542 -0.05701,-0.412586 -0.214544,-0.570119 l -9.007127,-8.206709 z"
         id="path4"
         inkscape:connector-curvature="0"
         style="opacity:0.8;fill:#ffffff;fill-rule:evenodd" />
    </g>
  </g>
</svg>
